^D:\PROJECTQT\FISH\FISH\BUILD\FISH.DIR\DEBUG\FISH.OBJ|D:\PROJECTQT\FISH\FISH\BUILD\FISH.DIR\DEBUG\FISH_AUTOMOC.OBJ|D:\PROJECTQT\FISH\FISH\BUILD\FISH.DIR\DEBUG\HERBIVOROUS.OBJ|D:\PROJECTQT\FISH\FISH\BUILD\FISH.DIR\DEBUG\HUNTER.OBJ|D:\PROJECTQT\FISH\FISH\BUILD\FISH.DIR\DEBUG\MAIN.OBJ|D:\PROJECTQT\FISH\FISH\BUILD\FISH.DIR\DEBUG\WIDGET.OBJ
C:\PROGRAM FILES (X86)\WINDOWS KITS\8.1\LIB\WINV6.3\UM\X64\KERNEL32.LIB
C:\PROGRAM FILES (X86)\WINDOWS KITS\8.1\LIB\WINV6.3\UM\X64\USER32.LIB
C:\PROGRAM FILES (X86)\WINDOWS KITS\8.1\LIB\WINV6.3\UM\X64\GDI32.LIB
C:\PROGRAM FILES (X86)\WINDOWS KITS\8.1\LIB\WINV6.3\UM\X64\WINSPOOL.LIB
C:\PROGRAM FILES (X86)\WINDOWS KITS\8.1\LIB\WINV6.3\UM\X64\SHELL32.LIB
C:\PROGRAM FILES (X86)\WINDOWS KITS\8.1\LIB\WINV6.3\UM\X64\OLE32.LIB
C:\PROGRAM FILES (X86)\WINDOWS KITS\8.1\LIB\WINV6.3\UM\X64\OLEAUT32.LIB
C:\PROGRAM FILES (X86)\WINDOWS KITS\8.1\LIB\WINV6.3\UM\X64\UUID.LIB
C:\PROGRAM FILES (X86)\WINDOWS KITS\8.1\LIB\WINV6.3\UM\X64\COMDLG32.LIB
C:\PROGRAM FILES (X86)\WINDOWS KITS\8.1\LIB\WINV6.3\UM\X64\ADVAPI32.LIB
C:\QT\QT5.4.1\5.4\MSVC2013_64\LIB\QT5WIDGETSD.LIB
C:\QT\QT5.4.1\5.4\MSVC2013_64\LIB\QT5GUID.LIB
C:\QT\QT5.4.1\5.4\MSVC2013_64\LIB\QT5CORED.LIB
D:\PROJECTQT\FISH\FISH\BUILD\FISH.DIR\DEBUG\FISH.OBJ
D:\PROJECTQT\FISH\FISH\BUILD\FISH.DIR\DEBUG\HERBIVOROUS.OBJ
D:\PROJECTQT\FISH\FISH\BUILD\FISH.DIR\DEBUG\HUNTER.OBJ
D:\PROJECTQT\FISH\FISH\BUILD\FISH.DIR\DEBUG\MAIN.OBJ
D:\PROJECTQT\FISH\FISH\BUILD\FISH.DIR\DEBUG\WIDGET.OBJ
D:\PROJECTQT\FISH\FISH\BUILD\FISH.DIR\DEBUG\FISH_AUTOMOC.OBJ
C:\WINDOWS\GLOBALIZATION\SORTING\SORTDEFAULT.NLS
D:\VS\MICROSOFT VISUAL STUDIO 12.0\VC\LIB\AMD64\MSVCPRTD.LIB
D:\VS\MICROSOFT VISUAL STUDIO 12.0\VC\LIB\AMD64\MSVCRTD.LIB
D:\VS\MICROSOFT VISUAL STUDIO 12.0\VC\LIB\AMD64\OLDNAMES.LIB
C:\PROGRAM FILES (X86)\WINDOWS KITS\8.1\BIN\X86\RC.EXE
D:\VS\MICROSOFT VISUAL STUDIO 12.0\VC\BIN\CVTRES.EXE
C:\WINDOWS\SYSTEM32\TZRES.DLL
C:\WINDOWS\SYSTEM32\RSAENH.DLL
