^D:\PROJECTQT\FISH\FISH\BUILD\CMAKEFILES\3.2.2\COMPILERIDCXX\CMAKECXXCOMPILERID.CPP
D:\VS\MICROSOFT VISUAL STUDIO 12.0\VC\BIN\X86_AMD64\1049\CLUI.DLL
C:\WINDOWS\GLOBALIZATION\SORTING\SORTDEFAULT.NLS
C:\WINDOWS\SYSTEM32\RSAENH.DLL
C:\WINDOWS\SYSTEM32\TZRES.DLL
